<svg width="32" height="32" viewBox="0 0 32 32" fill="none" xmlns="http://www.w3.org/2000/svg">
<g clip-path="url(#clip0_3386_1755)">
<path d="M26.08 3.47827V22.2609C26.08 23.7369 25.4937 25.1524 24.45 26.1961C23.4063 27.2398 21.9908 27.8261 20.5148 27.8261L2.43481 27.687V31.3044H29.5653V3.47827H26.08Z" fill="#E5E0FC"/>
<path d="M29.5652 19.6174C30.5257 19.6174 31.3043 18.8388 31.3043 17.8783C31.3043 16.9178 30.5257 16.1392 29.5652 16.1392C28.6047 16.1392 27.826 16.9178 27.826 17.8783C27.826 18.8388 28.6047 19.6174 29.5652 19.6174Z" fill="#AC7FFF"/>
<path d="M2.43481 18.6574C3.3953 18.6574 4.17394 17.8788 4.17394 16.9183C4.17394 15.9578 3.3953 15.1791 2.43481 15.1791C1.47431 15.1791 0.695679 15.9578 0.695679 16.9183C0.695679 17.8788 1.47431 18.6574 2.43481 18.6574Z" fill="#AC7FFF"/>
<path d="M32 17.8783C32.007 17.4252 31.8874 16.9792 31.6547 16.5903C31.422 16.2015 31.0854 15.8854 30.6828 15.6774C30.2802 15.4695 29.8275 15.378 29.3758 15.4134C28.924 15.4487 28.4911 15.6093 28.1257 15.8773C27.7603 16.1453 27.4769 16.5099 27.3074 16.9301C27.1379 17.3504 27.0891 17.8096 27.1664 18.2561C27.2437 18.7026 27.4441 19.1186 27.745 19.4575C28.0459 19.7963 28.4353 20.0444 28.8696 20.1739V30.6087H3.13044V22.1357C3.13044 21.9512 3.05715 21.7742 2.92669 21.6438C2.79623 21.5133 2.61929 21.44 2.43479 21.44C2.25029 21.44 2.07335 21.5133 1.94289 21.6438C1.81243 21.7742 1.73914 21.9512 1.73914 22.1357V31.3044C1.73914 31.4889 1.81243 31.6658 1.94289 31.7963C2.07335 31.9267 2.25029 32 2.43479 32H29.5652C29.7497 32 29.9267 31.9267 30.0571 31.7963C30.1876 31.6658 30.2609 31.4889 30.2609 31.3044V20.1739C30.7572 20.026 31.1935 19.7237 31.5063 19.3108C31.819 18.898 31.992 18.3962 32 17.8783ZM29.5652 18.9218C29.3588 18.9218 29.1571 18.8606 28.9855 18.7459C28.8139 18.6312 28.6802 18.4683 28.6012 18.2776C28.5222 18.0869 28.5015 17.8771 28.5418 17.6747C28.5821 17.4723 28.6814 17.2864 28.8274 17.1404C28.9733 16.9945 29.1592 16.8951 29.3617 16.8549C29.5641 16.8146 29.7739 16.8353 29.9645 16.9142C30.1552 16.9932 30.3182 17.127 30.4328 17.2986C30.5475 17.4702 30.6087 17.6719 30.6087 17.8783C30.6087 18.155 30.4988 18.4204 30.3031 18.6161C30.1074 18.8118 29.842 18.9218 29.5652 18.9218Z" fill="#341472"/>
<path d="M4.86953 16.9182C4.86445 16.398 4.69285 15.893 4.37987 15.4774C4.0669 15.0618 3.62901 14.7573 3.1304 14.6087V4.1739H28.8695V12.6539C28.8695 12.8384 28.9428 13.0153 29.0733 13.1458C29.2037 13.2763 29.3807 13.3496 29.5652 13.3496C29.7497 13.3496 29.9266 13.2763 30.0571 13.1458C30.1875 13.0153 30.2608 12.8384 30.2608 12.6539V3.47825C30.2608 3.29375 30.1875 3.1168 30.0571 2.98634C29.9266 2.85588 29.7497 2.78259 29.5652 2.78259H2.43474C2.25025 2.78259 2.0733 2.85588 1.94284 2.98634C1.81238 3.1168 1.73909 3.29375 1.73909 3.47825V14.6087C1.3079 14.7391 0.921478 14.9868 0.623059 15.3243C0.32464 15.6617 0.12599 16.0755 0.0493299 16.5194C-0.0273298 16.9634 0.0210241 17.4198 0.188983 17.8378C0.356941 18.2558 0.63788 18.6188 1.00037 18.8863C1.36287 19.1537 1.79262 19.315 2.24156 19.3522C2.6905 19.3893 3.14092 19.3008 3.54244 19.0966C3.94396 18.8924 4.28074 18.5804 4.51511 18.1957C4.74948 17.811 4.87219 17.3687 4.86953 16.9182ZM1.39127 16.9182C1.39127 16.7119 1.45246 16.5101 1.56712 16.3385C1.68178 16.1669 1.84475 16.0332 2.03542 15.9542C2.22609 15.8752 2.4359 15.8546 2.63832 15.8948C2.84073 15.9351 3.02666 16.0345 3.17259 16.1804C3.31853 16.3263 3.41791 16.5123 3.45817 16.7147C3.49844 16.9171 3.47777 17.1269 3.39879 17.3176C3.31981 17.5082 3.18607 17.6712 3.01447 17.7859C2.84287 17.9005 2.64112 17.9617 2.43474 17.9617C2.158 17.9617 1.89258 17.8518 1.69689 17.6561C1.5012 17.4604 1.39127 17.195 1.39127 16.9182Z" fill="#341472"/>
<path d="M19.8052 20.7443C19.8699 20.8095 19.9468 20.8613 20.0316 20.8966C20.1163 20.9319 20.2073 20.9501 20.2991 20.9501C20.3909 20.9501 20.4819 20.9319 20.5666 20.8966C20.6514 20.8613 20.7284 20.8095 20.793 20.7443L23.6452 17.8921C23.7104 17.8275 23.7622 17.7505 23.7975 17.6658C23.8328 17.581 23.851 17.4901 23.851 17.3982C23.851 17.3064 23.8328 17.2155 23.7975 17.1307C23.7622 17.0459 23.7104 16.969 23.6452 16.9043L20.793 14.0521C20.7284 13.9869 20.6514 13.9352 20.5666 13.8999C20.4819 13.8646 20.3909 13.8464 20.2991 13.8464C20.2073 13.8464 20.1163 13.8646 20.0316 13.8999C19.9468 13.9352 19.8699 13.9869 19.8052 14.0521C19.6756 14.1825 19.6029 14.3588 19.6029 14.5426C19.6029 14.7264 19.6756 14.9027 19.8052 15.033L22.1704 17.3982L19.8052 19.7635C19.6756 19.8938 19.6029 20.0701 19.6029 20.2539C19.6029 20.4377 19.6756 20.614 19.8052 20.7443Z" fill="#341472"/>
<path d="M12.1948 14.0521C12.1302 13.9869 12.0532 13.9352 11.9684 13.8999C11.8837 13.8646 11.7927 13.8464 11.7009 13.8464C11.6091 13.8464 11.5181 13.8646 11.4334 13.8999C11.3486 13.9352 11.2717 13.9869 11.207 14.0521L8.34786 16.9043C8.28266 16.969 8.23091 17.0459 8.19559 17.1307C8.16027 17.2155 8.14209 17.3064 8.14209 17.3982C8.14209 17.4901 8.16027 17.581 8.19559 17.6658C8.23091 17.7505 8.28266 17.8275 8.34786 17.8921L11.2 20.7443C11.2647 20.8095 11.3416 20.8613 11.4264 20.8966C11.5112 20.9319 11.6021 20.9501 11.6939 20.9501C11.7858 20.9501 11.8767 20.9319 11.9615 20.8966C12.0463 20.8613 12.1232 20.8095 12.1879 20.7443C12.3174 20.614 12.3902 20.4377 12.3902 20.2539C12.3902 20.0701 12.3174 19.8938 12.1879 19.7635L9.8296 17.3913L12.1948 15.0261C12.3223 14.896 12.3937 14.7212 12.3937 14.5391C12.3937 14.357 12.3223 14.1822 12.1948 14.0521Z" fill="#341472"/>
<path d="M16.96 12.5218L13.7253 21.8365C13.6946 21.9233 13.6814 22.0153 13.6865 22.1072C13.6916 22.199 13.7149 22.289 13.755 22.3718C13.7951 22.4546 13.8513 22.5287 13.9202 22.5896C13.9891 22.6506 14.0695 22.6973 14.1566 22.727C14.2327 22.737 14.3099 22.737 14.3861 22.727C14.5299 22.7264 14.67 22.6813 14.7871 22.5978C14.9042 22.5143 14.9926 22.3966 15.04 22.2609L18.2748 12.9252C18.3055 12.8385 18.3187 12.7465 18.3136 12.6546C18.3085 12.5627 18.2852 12.4728 18.2451 12.39C18.205 12.3072 18.1488 12.2331 18.0799 12.1722C18.011 12.1112 17.9306 12.0645 17.8435 12.0348C17.7536 12.0063 17.6588 11.9963 17.5648 12.0055C17.4709 12.0148 17.3799 12.0431 17.2972 12.0886C17.2146 12.1342 17.1421 12.1961 17.0841 12.2705C17.0261 12.345 16.9839 12.4305 16.96 12.5218Z" fill="#341472"/>
</g>
<defs>
<clipPath id="clip0_3386_1755">
<rect width="32" height="32" fill="white"/>
</clipPath>
</defs>
</svg>
