<svg width="32" height="33" viewBox="0 0 32 33" fill="none" xmlns="http://www.w3.org/2000/svg">
<g clip-path="url(#clip0_1145_6498)">
<path d="M28.3919 25.1965C27.4501 26.4844 26.3147 27.6187 25.026 28.5593L22.5367 27.3978C22.2386 27.2611 21.9154 27.1874 21.5875 27.1813C21.2595 27.1752 20.9339 27.2368 20.6308 27.3624C20.3278 27.4879 20.054 27.6746 19.8264 27.9108C19.5989 28.1471 19.4225 28.4277 19.3084 28.7352L18.3677 31.3205C16.7925 31.5668 15.1885 31.5668 13.6132 31.3205L12.6726 28.7352C12.558 28.428 12.3815 28.1477 12.1538 27.9117C11.9262 27.6758 11.6524 27.4892 11.3495 27.3637C11.0466 27.2383 10.7211 27.1765 10.3933 27.1824C10.0655 27.1883 9.74243 27.2616 9.44422 27.3978L6.95178 28.5593C5.66475 27.6178 4.53053 26.4836 3.58906 25.1965L4.75049 22.7041C4.88969 22.4063 4.96536 22.0828 4.97268 21.7542C4.97999 21.4255 4.9188 21.099 4.79299 20.7953C4.66718 20.4916 4.47952 20.2175 4.24194 19.9903C4.00437 19.7631 3.72209 19.5879 3.41309 19.4758L0.82786 18.5351C0.581469 16.9598 0.581469 15.3559 0.82786 13.7806L3.41309 12.8399C3.7203 12.7254 4.00063 12.5488 4.23659 12.3212C4.47255 12.0936 4.65909 11.8198 4.78457 11.5169C4.91005 11.214 4.97179 10.8885 4.96592 10.5607C4.96006 10.2329 4.88673 9.90981 4.75049 9.61159L4.43054 8.8949" stroke="#171321" stroke-width="1.27982" stroke-linecap="round" stroke-linejoin="round"/>
<path d="M3.58887 7.12246C4.49401 5.88195 5.57882 4.78312 6.8076 3.86213C6.85366 3.82955 6.90751 3.80972 6.9637 3.80466C7.01989 3.79961 7.07642 3.8095 7.12756 3.83333L9.45682 4.92117C9.75468 5.05987 10.0781 5.13515 10.4066 5.14222C10.7351 5.14929 11.0615 5.088 11.365 4.96225C11.6686 4.8365 11.9427 4.64902 12.1699 4.41172C12.3972 4.17442 12.5726 3.89247 12.6852 3.58377L13.6258 0.99534C15.2011 0.748949 16.8051 0.748949 18.3803 0.99534L19.321 3.58377C19.4335 3.89247 19.609 4.17442 19.8362 4.41172C20.0635 4.64902 20.3376 4.8365 20.6411 4.96225C20.9447 5.088 21.271 5.14929 21.5995 5.14222C21.928 5.13515 22.2515 5.05987 22.5493 4.92117L25.0386 3.75654C26.3236 4.69838 27.4547 5.83385 28.3917 7.12246L27.227 9.6117C27.0883 9.90956 27.0131 10.233 27.006 10.5615C26.9989 10.89 27.0602 11.2164 27.186 11.5199C27.3117 11.8235 27.4992 12.0976 27.7365 12.3248C27.9738 12.5521 28.2558 12.7275 28.5645 12.84L31.1529 13.7807C31.3992 15.356 31.3992 16.9599 31.1529 18.5352L28.5645 19.4759C28.2572 19.5904 27.9769 19.767 27.741 19.9946C27.505 20.2222 27.3185 20.496 27.193 20.7989C27.0675 21.1018 27.0058 21.4273 27.0116 21.7551C27.0175 22.0829 27.0908 22.406 27.227 22.7042L27.6142 23.4785" stroke="#171321" stroke-width="1.27982" stroke-linecap="round" stroke-linejoin="round"/>
<path d="M11.6621 18.3605L9.44092 16.1361L11.6621 13.9149" stroke="#171321" stroke-width="1.27982" stroke-linecap="round" stroke-linejoin="round"/>
<path d="M20.3477 13.9149L22.5721 16.1361L20.3477 18.3605" stroke="#171321" stroke-width="1.27982" stroke-linecap="round" stroke-linejoin="round"/>
<path d="M17.1644 12.7439L14.8447 19.5749" stroke="#171321" stroke-width="1.27982" stroke-linecap="round" stroke-linejoin="round"/>
</g>
<defs>
<clipPath id="clip0_1145_6498">
<rect width="31.9954" height="31.9954" fill="white" transform="translate(0 0.150513)"/>
</clipPath>
</defs>
</svg>
