<svg width="32" height="32" viewBox="0 0 32 32" fill="none" xmlns="http://www.w3.org/2000/svg">
<path d="M30.72 10.976H1.28C0.940523 10.976 0.61495 10.8412 0.374903 10.6011C0.134857 10.3611 0 10.0355 0 9.69602C0 9.35654 0.134857 9.03097 0.374903 8.79092C0.61495 8.55087 0.940523 8.41602 1.28 8.41602H30.72C31.0595 8.41602 31.385 8.55087 31.6251 8.79092C31.8651 9.03097 32 9.35654 32 9.69602C32 10.0355 31.8651 10.3611 31.6251 10.6011C31.385 10.8412 31.0595 10.976 30.72 10.976Z" fill="#7D2BD9"/>
<path d="M28.16 32H3.84C2.82157 32 1.84485 31.5954 1.12471 30.8753C0.40457 30.1551 0 29.1784 0 28.16L0 3.84C0 2.82157 0.40457 1.84485 1.12471 1.12471C1.84485 0.40457 2.82157 0 3.84 0L28.16 0C29.1784 0 30.1551 0.40457 30.8753 1.12471C31.5954 1.84485 32 2.82157 32 3.84V28.16C32 29.1784 31.5954 30.1551 30.8753 30.8753C30.1551 31.5954 29.1784 32 28.16 32ZM3.84 2.56C3.50052 2.56 3.17495 2.69486 2.9349 2.9349C2.69486 3.17495 2.56 3.50052 2.56 3.84V28.16C2.56 28.4995 2.69486 28.8251 2.9349 29.0651C3.17495 29.3051 3.50052 29.44 3.84 29.44H28.16C28.4995 29.44 28.8251 29.3051 29.0651 29.0651C29.3051 28.8251 29.44 28.4995 29.44 28.16V3.84C29.44 3.50052 29.3051 3.17495 29.0651 2.9349C28.8251 2.69486 28.4995 2.56 28.16 2.56H3.84Z" fill="#7D2BD9"/>
<path d="M19.6671 24.6656C19.3555 24.6684 19.0536 24.5576 18.818 24.3537C18.5823 24.1499 18.4291 23.8671 18.3871 23.5584L17.8431 19.5392C17.8167 19.3439 17.8357 19.1451 17.8987 18.9583C17.9618 18.7716 18.0671 18.6019 18.2064 18.4626C18.3458 18.3232 18.5155 18.2179 18.7022 18.1549C18.889 18.0918 19.0878 18.0728 19.2831 18.0992L23.3023 18.6432C23.4704 18.6655 23.6324 18.7206 23.7792 18.8055C23.926 18.8904 24.0546 19.0034 24.1577 19.138C24.2608 19.2726 24.3364 19.4262 24.3802 19.59C24.4239 19.7539 24.435 19.9247 24.4127 20.0928C24.3904 20.2609 24.3353 20.4229 24.2504 20.5697C24.1655 20.7165 24.0525 20.8451 23.9179 20.9482C23.7833 21.0513 23.6297 21.1269 23.4658 21.1707C23.302 21.2144 23.1312 21.2255 22.9631 21.2032L20.6079 20.8896L20.9215 23.2448C20.9601 23.5748 20.8688 23.9069 20.6669 24.1709C20.4651 24.4348 20.1685 24.6099 19.8399 24.6592L19.6671 24.6656Z" fill="#7D2BD9"/>
<path d="M23.5584 25.0816C23.3895 25.0817 23.2223 25.0484 23.0663 24.9836C22.9103 24.9188 22.7687 24.8238 22.6496 24.704L18.2208 20.2752C18.1019 20.1563 18.0076 20.0151 17.9432 19.8597C17.8788 19.7043 17.8457 19.5378 17.8457 19.3696C17.8457 19.2014 17.8788 19.0349 17.9432 18.8795C18.0076 18.7241 18.1019 18.5829 18.2208 18.464C18.3397 18.3451 18.4809 18.2507 18.6363 18.1864C18.7917 18.122 18.9582 18.0889 19.1264 18.0889C19.2946 18.0889 19.4611 18.122 19.6165 18.1864C19.7719 18.2507 19.9131 18.3451 20.032 18.464L24.4608 22.8928C24.6409 23.0714 24.7639 23.2996 24.8141 23.5483C24.8643 23.7969 24.8395 24.0549 24.7428 24.2895C24.6461 24.524 24.4819 24.7245 24.271 24.8656C24.0601 25.0066 23.8121 25.0818 23.5584 25.0816Z" fill="#7D2BD9"/>
<path d="M25.9263 6.77118H17.7983C17.4588 6.77118 17.1333 6.63632 16.8932 6.39628C16.6532 6.15623 16.5183 5.83066 16.5183 5.49118C16.5183 5.1517 16.6532 4.82613 16.8932 4.58608C17.1333 4.34604 17.4588 4.21118 17.7983 4.21118H25.9263C26.2658 4.21118 26.5914 4.34604 26.8314 4.58608C27.0715 4.82613 27.2063 5.1517 27.2063 5.49118C27.2063 5.83066 27.0715 6.15623 26.8314 6.39628C26.5914 6.63632 26.2658 6.77118 25.9263 6.77118Z" fill="#7D2BD9"/>
</svg>
