<svg width="32" height="32" viewBox="0 0 32 32" fill="none" xmlns="http://www.w3.org/2000/svg">
<g clip-path="url(#clip0_1386_12915)">
<path d="M15.9968 21.0818L21.3337 17.2007C21.4055 17.1478 21.4588 17.0735 21.4858 16.9884C21.5129 16.9033 21.5122 16.8119 21.484 16.7272L19.6443 11.0576C19.6293 11.0162 19.6019 10.9804 19.5658 10.9551C19.5298 10.9298 19.4868 10.9162 19.4427 10.9162C19.3987 10.9162 19.3557 10.9298 19.3196 10.9551C19.2835 10.9804 19.2561 11.0162 19.2412 11.0576L18.0189 14.8267H13.9523L12.7269 11.0576C12.7119 11.0162 12.6845 10.9804 12.6484 10.9551C12.6124 10.9298 12.5694 10.9162 12.5253 10.9162C12.4813 10.9162 12.4383 10.9298 12.4022 10.9551C12.3661 10.9804 12.3387 11.0162 12.3238 11.0576L10.484 16.7272C10.4558 16.8119 10.4552 16.9033 10.4822 16.9884C10.5092 17.0735 10.5625 17.1478 10.6344 17.2007L15.9968 21.0818Z" stroke="#171321" stroke-width="1.27982" stroke-linecap="round" stroke-linejoin="round"/>
<path d="M16.001 4.53108C17.0755 4.53108 17.9465 3.66002 17.9465 2.58552C17.9465 1.51101 17.0755 0.639954 16.001 0.639954C14.9265 0.639954 14.0554 1.51101 14.0554 2.58552C14.0554 3.66002 14.9265 4.53108 16.001 4.53108Z" stroke="#171321" stroke-width="1.27982" stroke-linecap="round" stroke-linejoin="round"/>
<path d="M16.001 31.3624C17.0755 31.3624 17.9465 30.4914 17.9465 29.4169C17.9465 28.3424 17.0755 27.4713 16.001 27.4713C14.9265 27.4713 14.0554 28.3424 14.0554 29.4169C14.0554 30.4914 14.9265 31.3624 16.001 31.3624Z" stroke="#171321" stroke-width="1.27982" stroke-linecap="round" stroke-linejoin="round"/>
<path d="M29.416 17.9467C30.4905 17.9467 31.3616 17.0757 31.3616 16.0012C31.3616 14.9267 30.4905 14.0556 29.416 14.0556C28.3415 14.0556 27.4705 14.9267 27.4705 16.0012C27.4705 17.0757 28.3415 17.9467 29.416 17.9467Z" stroke="#171321" stroke-width="1.27982" stroke-linecap="round" stroke-linejoin="round"/>
<path d="M2.58399 17.9467C3.6585 17.9467 4.52956 17.0757 4.52956 16.0012C4.52956 14.9267 3.6585 14.0556 2.58399 14.0556C1.50949 14.0556 0.638428 14.9267 0.638428 16.0012C0.638428 17.0757 1.50949 17.9467 2.58399 17.9467Z" stroke="#171321" stroke-width="1.27982" stroke-linecap="round" stroke-linejoin="round"/>
<path d="M25.4873 8.46016C26.5618 8.46016 27.4329 7.5891 27.4329 6.51459C27.4329 5.44009 26.5618 4.56903 25.4873 4.56903C24.4128 4.56903 23.5417 5.44009 23.5417 6.51459C23.5417 7.5891 24.4128 8.46016 25.4873 8.46016Z" stroke="#171321" stroke-width="1.27982" stroke-linecap="round" stroke-linejoin="round"/>
<path d="M6.51417 27.4334C7.58867 27.4334 8.45973 26.5623 8.45973 25.4878C8.45973 24.4133 7.58867 23.5422 6.51417 23.5422C5.43966 23.5422 4.5686 24.4133 4.5686 25.4878C4.5686 26.5623 5.43966 27.4334 6.51417 27.4334Z" stroke="#171321" stroke-width="1.27982" stroke-linecap="round" stroke-linejoin="round"/>
<path d="M25.4873 27.4334C26.5618 27.4334 27.4329 26.5623 27.4329 25.4878C27.4329 24.4133 26.5618 23.5422 25.4873 23.5422C24.4128 23.5422 23.5417 24.4133 23.5417 25.4878C23.5417 26.5623 24.4128 27.4334 25.4873 27.4334Z" stroke="#171321" stroke-width="1.27982" stroke-linecap="round" stroke-linejoin="round"/>
<path d="M6.51417 8.46016C7.58867 8.46016 8.45973 7.5891 8.45973 6.51459C8.45973 5.44009 7.58867 4.56903 6.51417 4.56903C5.43966 4.56903 4.5686 5.44009 4.5686 6.51459C4.5686 7.5891 5.43966 8.46016 6.51417 8.46016Z" stroke="#171321" stroke-width="1.27982" stroke-linecap="round" stroke-linejoin="round"/>
<path d="M8.19678 5.07129C9.83099 3.90323 11.7078 3.11906 13.6872 2.77722" stroke="#171321" stroke-width="1.27982" stroke-linecap="round" stroke-linejoin="round"/>
<path d="M2.75732 13.7377C2.93042 12.7228 3.21972 11.7312 3.61953 10.7825" stroke="#171321" stroke-width="1.27982" stroke-linecap="round" stroke-linejoin="round"/>
<path d="M5.09896 23.8452C4.41597 22.8994 3.85994 21.8682 3.44507 20.7778" stroke="#171321" stroke-width="1.27982" stroke-linecap="round" stroke-linejoin="round"/>
<path d="M13.8252 29.2438C11.8361 28.9232 9.94513 28.1576 8.29321 27.0042" stroke="#171321" stroke-width="1.27982" stroke-linecap="round" stroke-linejoin="round"/>
<path d="M24.0249 26.7418C22.3493 27.9965 20.4033 28.8413 18.3425 29.2087" stroke="#171321" stroke-width="1.27982" stroke-linecap="round" stroke-linejoin="round"/>
<path d="M28.6457 20.4579C28.2227 21.6718 27.6268 22.8182 26.8765 23.8619" stroke="#171321" stroke-width="1.27982" stroke-linecap="round" stroke-linejoin="round"/>
<path d="M28.062 10.1522C28.6184 11.3004 29.008 12.5222 29.2191 13.7805" stroke="#171321" stroke-width="1.27982" stroke-linecap="round" stroke-linejoin="round"/>
<path d="M18.2112 2.76447C20.2138 3.09969 22.1135 3.88759 23.7656 5.06813" stroke="#171321" stroke-width="1.27982" stroke-linecap="round" stroke-linejoin="round"/>
</g>
<defs>
<clipPath id="clip0_1386_12915">
<rect width="31.9954" height="31.9954" fill="white"/>
</clipPath>
</defs>
</svg>
